%YAML 1.1
%TAG !u! tag:unity3d.com,2011:
--- !u!114 &-7897436773951718823
MonoBehaviour:
  m_ObjectHideFlags: 11
  m_CorrespondingSourceObject: {fileID: 0}
  m_PrefabInstance: {fileID: 0}
  m_PrefabAsset: {fileID: 0}
  m_GameObject: {fileID: 0}
  m_Enabled: 1
  m_EditorHideFlags: 0
  m_Script: {fileID: 11500000, guid: d0353a89b1f911e48b9e16bdc9f2e058, type: 3}
  m_Name: 
  m_EditorClassIdentifier: 
  version: 7
--- !u!21 &2100000
Material:
  serializedVersion: 8
  m_ObjectHideFlags: 0
  m_CorrespondingSourceObject: {fileID: 0}
  m_PrefabInstance: {fileID: 0}
  m_PrefabAsset: {fileID: 0}
  m_Name: M_AltarOrb_NoTeam
  m_Shader: {fileID: -6465566751694194690, guid: 0d679bba0c4697f4697ffdfa8993d82d,
    type: 3}
  m_Parent: {fileID: 0}
  m_ModifiedSerializedProperties: 0
  m_ValidKeywords: []
  m_InvalidKeywords: []
  m_LightmapFlags: 4
  m_EnableInstancingVariants: 0
  m_DoubleSidedGI: 0
  m_CustomRenderQueue: -1
  stringTagMap: {}
  disabledShaderPasses: []
  m_LockedProperties: 
  m_SavedProperties:
    serializedVersion: 3
    m_TexEnvs:
    - _SampleTexture2D_f084d3c149934548ae54e6865c5977ed_Texture_1_Texture2D:
        m_Texture: {fileID: 2800000, guid: ccc0f934cdc5664419bc61934eeb3761, type: 3}
        m_Scale: {x: 1, y: 1}
        m_Offset: {x: 0, y: 0}
    - _Texture2D:
        m_Texture: {fileID: 2800000, guid: 5e77a31b2960e344bb6ed0237babbfe8, type: 3}
        m_Scale: {x: 1, y: 1}
        m_Offset: {x: 0, y: 0}
    - unity_Lightmaps:
        m_Texture: {fileID: 0}
        m_Scale: {x: 1, y: 1}
        m_Offset: {x: 0, y: 0}
    - unity_LightmapsInd:
        m_Texture: {fileID: 0}
        m_Scale: {x: 1, y: 1}
        m_Offset: {x: 0, y: 0}
    - unity_ShadowMasks:
        m_Texture: {fileID: 0}
        m_Scale: {x: 1, y: 1}
        m_Offset: {x: 0, y: 0}
    m_Ints: []
    m_Floats:
    - _Bounce_Rate: 6
    - _Distortion_Strength: 0.02
    - _Float: 2.91
    - _Highlight: 0
    - _Noise_Scale: 3
    - _Not_Highlighted_Saturation: 0.25
    - _QueueControl: 0
    - _QueueOffset: 0
    - _Scroll_Speed: 0.5
    - _Top_Deformation: 70
    m_Colors:
    - _Tint: {r: 1, g: 1, b: 1, a: 0}
  m_BuildTextureStacks: []
