%YAML 1.1
%TAG !u! tag:unity3d.com,2011:
--- !u!29 &1
OcclusionCullingSettings:
  m_ObjectHideFlags: 0
  serializedVersion: 2
  m_OcclusionBakeSettings:
    smallestOccluder: 5
    smallestHole: 0.25
    backfaceThreshold: 100
  m_SceneGUID: 00000000000000000000000000000000
  m_OcclusionCullingData: {fileID: 0}
--- !u!104 &2
RenderSettings:
  m_ObjectHideFlags: 0
  serializedVersion: 9
  m_Fog: 0
  m_FogColor: {r: 0.5, g: 0.5, b: 0.5, a: 1}
  m_FogMode: 3
  m_FogDensity: 0.01
  m_LinearFogStart: 0
  m_LinearFogEnd: 300
  m_AmbientSkyColor: {r: 0.212, g: 0.227, b: 0.259, a: 1}
  m_AmbientEquatorColor: {r: 0.114, g: 0.125, b: 0.133, a: 1}
  m_AmbientGroundColor: {r: 0.047, g: 0.043, b: 0.035, a: 1}
  m_AmbientIntensity: 1
  m_AmbientMode: 0
  m_SubtractiveShadowColor: {r: 0.42, g: 0.478, b: 0.627, a: 1}
  m_SkyboxMaterial: {fileID: 10304, guid: 0000000000000000f000000000000000, type: 0}
  m_HaloStrength: 0.5
  m_FlareStrength: 1
  m_FlareFadeSpeed: 3
  m_HaloTexture: {fileID: 0}
  m_SpotCookie: {fileID: 10001, guid: 0000000000000000e000000000000000, type: 0}
  m_DefaultReflectionMode: 0
  m_DefaultReflectionResolution: 128
  m_ReflectionBounces: 1
  m_ReflectionIntensity: 1
  m_CustomReflection: {fileID: 0}
  m_Sun: {fileID: 0}
  m_IndirectSpecularColor: {r: 0.18028378, g: 0.22571412, b: 0.30692285, a: 1}
  m_UseRadianceAmbientProbe: 0
--- !u!157 &3
LightmapSettings:
  m_ObjectHideFlags: 0
  serializedVersion: 12
  m_GIWorkflowMode: 1
  m_GISettings:
    serializedVersion: 2
    m_BounceScale: 1
    m_IndirectOutputScale: 1
    m_AlbedoBoost: 1
    m_EnvironmentLightingMode: 0
    m_EnableBakedLightmaps: 1
    m_EnableRealtimeLightmaps: 0
  m_LightmapEditorSettings:
    serializedVersion: 12
    m_Resolution: 2
    m_BakeResolution: 40
    m_AtlasSize: 1024
    m_AO: 0
    m_AOMaxDistance: 1
    m_CompAOExponent: 1
    m_CompAOExponentDirect: 0
    m_ExtractAmbientOcclusion: 0
    m_Padding: 2
    m_LightmapParameters: {fileID: 0}
    m_LightmapsBakeMode: 1
    m_TextureCompression: 1
    m_FinalGather: 0
    m_FinalGatherFiltering: 1
    m_FinalGatherRayCount: 256
    m_ReflectionCompression: 2
    m_MixedBakeMode: 2
    m_BakeBackend: 1
    m_PVRSampling: 1
    m_PVRDirectSampleCount: 32
    m_PVRSampleCount: 512
    m_PVRBounces: 2
    m_PVREnvironmentSampleCount: 256
    m_PVREnvironmentReferencePointCount: 2048
    m_PVRFilteringMode: 1
    m_PVRDenoiserTypeDirect: 1
    m_PVRDenoiserTypeIndirect: 1
    m_PVRDenoiserTypeAO: 1
    m_PVRFilterTypeDirect: 0
    m_PVRFilterTypeIndirect: 0
    m_PVRFilterTypeAO: 0
    m_PVREnvironmentMIS: 1
    m_PVRCulling: 1
    m_PVRFilteringGaussRadiusDirect: 1
    m_PVRFilteringGaussRadiusIndirect: 5
    m_PVRFilteringGaussRadiusAO: 2
    m_PVRFilteringAtrousPositionSigmaDirect: 0.5
    m_PVRFilteringAtrousPositionSigmaIndirect: 2
    m_PVRFilteringAtrousPositionSigmaAO: 1
    m_ExportTrainingData: 0
    m_TrainingDataDestination: TrainingData
    m_LightProbeSampleCountMultiplier: 4
  m_LightingDataAsset: {fileID: 0}
  m_LightingSettings: {fileID: 0}
--- !u!196 &4
NavMeshSettings:
  serializedVersion: 2
  m_ObjectHideFlags: 0
  m_BuildSettings:
    serializedVersion: 3
    agentTypeID: 0
    agentRadius: 0.5
    agentHeight: 2
    agentSlope: 45
    agentClimb: 0.4
    ledgeDropHeight: 0
    maxJumpAcrossDistance: 0
    minRegionArea: 2
    manualCellSize: 0
    cellSize: 0.16666667
    manualTileSize: 0
    tileSize: 256
    buildHeightMesh: 0
    maxJobWorkers: 0
    preserveTilesOutsideBounds: 0
    debug:
      m_Flags: 0
  m_NavMeshData: {fileID: 0}
--- !u!4 &258430733 stripped
Transform:
  m_CorrespondingSourceObject: {fileID: 9050009635727066153, guid: 287c67d3694275b42b273bbc39d002bb,
    type: 3}
  m_PrefabInstance: {fileID: 7681854091525153075}
  m_PrefabAsset: {fileID: 0}
--- !u!1 &904124049
GameObject:
  m_ObjectHideFlags: 0
  m_CorrespondingSourceObject: {fileID: 0}
  m_PrefabInstance: {fileID: 0}
  m_PrefabAsset: {fileID: 0}
  serializedVersion: 6
  m_Component:
  - component: {fileID: 904124052}
  - component: {fileID: 904124051}
  - component: {fileID: 904124050}
  - component: {fileID: 904124053}
  m_Layer: 0
  m_Name: Main Camera
  m_TagString: MainCamera
  m_Icon: {fileID: 0}
  m_NavMeshLayer: 0
  m_StaticEditorFlags: 0
  m_IsActive: 1
--- !u!81 &904124050
AudioListener:
  m_ObjectHideFlags: 0
  m_CorrespondingSourceObject: {fileID: 0}
  m_PrefabInstance: {fileID: 0}
  m_PrefabAsset: {fileID: 0}
  m_GameObject: {fileID: 904124049}
  m_Enabled: 1
--- !u!20 &904124051
Camera:
  m_ObjectHideFlags: 0
  m_CorrespondingSourceObject: {fileID: 0}
  m_PrefabInstance: {fileID: 0}
  m_PrefabAsset: {fileID: 0}
  m_GameObject: {fileID: 904124049}
  m_Enabled: 1
  serializedVersion: 2
  m_ClearFlags: 2
  m_BackGroundColor: {r: 0.15325737, g: 0.2195411, b: 0.26415092, a: 1}
  m_projectionMatrixMode: 1
  m_GateFitMode: 2
  m_FOVAxisMode: 0
  m_Iso: 200
  m_ShutterSpeed: 0.005
  m_Aperture: 16
  m_FocusDistance: 10
  m_FocalLength: 50
  m_BladeCount: 5
  m_Curvature: {x: 2, y: 11}
  m_BarrelClipping: 0.25
  m_Anamorphism: 0
  m_SensorSize: {x: 36, y: 24}
  m_LensShift: {x: 0, y: 0}
  m_NormalizedViewPortRect:
    serializedVersion: 2
    x: 0
    y: 0
    width: 1
    height: 1
  near clip plane: 0
  far clip plane: 60
  field of view: 20.4
  orthographic: 1
  orthographic size: 10.580453
  m_Depth: -1
  m_CullingMask:
    serializedVersion: 2
    m_Bits: 4294967295
  m_RenderingPath: -1
  m_TargetTexture: {fileID: 0}
  m_TargetDisplay: 0
  m_TargetEye: 3
  m_HDR: 1
  m_AllowMSAA: 1
  m_AllowDynamicResolution: 0
  m_ForceIntoRT: 0
  m_OcclusionCulling: 1
  m_StereoConvergence: 10
  m_StereoSeparation: 0.022
--- !u!4 &904124052
Transform:
  m_ObjectHideFlags: 0
  m_CorrespondingSourceObject: {fileID: 0}
  m_PrefabInstance: {fileID: 0}
  m_PrefabAsset: {fileID: 0}
  m_GameObject: {fileID: 904124049}
  serializedVersion: 2
  m_LocalRotation: {x: 0.5, y: -0, z: -0, w: 0.8660254}
  m_LocalPosition: {x: 0, y: 28.3, z: -17.07}
  m_LocalScale: {x: 1, y: 1, z: 1}
  m_ConstrainProportionsScale: 0
  m_Children: []
  m_Father: {fileID: 1592027941}
  m_LocalEulerAnglesHint: {x: 60, y: 0, z: 0}
--- !u!114 &904124053
MonoBehaviour:
  m_ObjectHideFlags: 0
  m_CorrespondingSourceObject: {fileID: 0}
  m_PrefabInstance: {fileID: 0}
  m_PrefabAsset: {fileID: 0}
  m_GameObject: {fileID: 904124049}
  m_Enabled: 1
  m_EditorHideFlags: 0
  m_Script: {fileID: 11500000, guid: a79441f348de89743a2939f4d699eac1, type: 3}
  m_Name: 
  m_EditorClassIdentifier: 
  m_RenderShadows: 1
  m_RequiresDepthTextureOption: 2
  m_RequiresOpaqueTextureOption: 2
  m_CameraType: 0
  m_Cameras: []
  m_RendererIndex: -1
  m_VolumeLayerMask:
    serializedVersion: 2
    m_Bits: 1
  m_VolumeTrigger: {fileID: 0}
  m_VolumeFrameworkUpdateModeOption: 2
  m_RenderPostProcessing: 0
  m_Antialiasing: 0
  m_AntialiasingQuality: 2
  m_StopNaN: 0
  m_Dithering: 0
  m_ClearDepth: 1
  m_AllowXRRendering: 1
  m_AllowHDROutput: 1
  m_UseScreenCoordOverride: 0
  m_ScreenSizeOverride: {x: 0, y: 0, z: 0, w: 0}
  m_ScreenCoordScaleBias: {x: 0, y: 0, z: 0, w: 0}
  m_RequiresDepthTexture: 0
  m_RequiresColorTexture: 0
  m_Version: 2
  m_TaaSettings:
    quality: 3
    frameInfluence: 0.1
    jitterScale: 1
    mipBias: 0
    varianceClampScale: 0.9
    contrastAdaptiveSharpening: 0
--- !u!1 &1180508633 stripped
GameObject:
  m_CorrespondingSourceObject: {fileID: 5546231899441567787, guid: aae6d1bd495f14a47981eafd0ca1a2ab,
    type: 3}
  m_PrefabInstance: {fileID: 1561192732}
  m_PrefabAsset: {fileID: 0}
--- !u!4 &1180508634 stripped
Transform:
  m_CorrespondingSourceObject: {fileID: 1626475009636402646, guid: aae6d1bd495f14a47981eafd0ca1a2ab,
    type: 3}
  m_PrefabInstance: {fileID: 1561192732}
  m_PrefabAsset: {fileID: 0}
--- !u!114 &1180508635
MonoBehaviour:
  m_ObjectHideFlags: 0
  m_CorrespondingSourceObject: {fileID: 0}
  m_PrefabInstance: {fileID: 0}
  m_PrefabAsset: {fileID: 0}
  m_GameObject: {fileID: 1180508633}
  m_Enabled: 1
  m_EditorHideFlags: 0
  m_Script: {fileID: 11500000, guid: 1d5f8a5e5944d1746bbcc629623fa143, type: 3}
  m_Name: 
  m_EditorClassIdentifier: 
  score0: {fileID: 1898519367}
  score1: {fileID: 1501329720}
  scorebar: {fileID: 1180508637}
--- !u!23 &1180508637 stripped
MeshRenderer:
  m_CorrespondingSourceObject: {fileID: 6125703779633116002, guid: aae6d1bd495f14a47981eafd0ca1a2ab,
    type: 3}
  m_PrefabInstance: {fileID: 1561192732}
  m_PrefabAsset: {fileID: 0}
--- !u!1 &1217292891
GameObject:
  m_ObjectHideFlags: 0
  m_CorrespondingSourceObject: {fileID: 0}
  m_PrefabInstance: {fileID: 0}
  m_PrefabAsset: {fileID: 0}
  serializedVersion: 6
  m_Component:
  - component: {fileID: 1217292892}
  m_Layer: 0
  m_Name: Managers
  m_TagString: Untagged
  m_Icon: {fileID: 0}
  m_NavMeshLayer: 0
  m_StaticEditorFlags: 0
  m_IsActive: 1
--- !u!4 &1217292892
Transform:
  m_ObjectHideFlags: 0
  m_CorrespondingSourceObject: {fileID: 0}
  m_PrefabInstance: {fileID: 0}
  m_PrefabAsset: {fileID: 0}
  m_GameObject: {fileID: 1217292891}
  serializedVersion: 2
  m_LocalRotation: {x: 0, y: 0, z: 0, w: 1}
  m_LocalPosition: {x: 0, y: 0, z: 0}
  m_LocalScale: {x: 1, y: 1, z: 1}
  m_ConstrainProportionsScale: 0
  m_Children:
  - {fileID: 258430733}
  - {fileID: 1610621883}
  - {fileID: 1180508634}
  - {fileID: 1898519366}
  - {fileID: 1501329719}
  m_Father: {fileID: 0}
  m_LocalEulerAnglesHint: {x: 0, y: 0, z: 0}
--- !u!1 &1376846046
GameObject:
  m_ObjectHideFlags: 0
  m_CorrespondingSourceObject: {fileID: 0}
  m_PrefabInstance: {fileID: 0}
  m_PrefabAsset: {fileID: 0}
  serializedVersion: 6
  m_Component:
  - component: {fileID: 1376846048}
  - component: {fileID: 1376846047}
  - component: {fileID: 1376846049}
  m_Layer: 0
  m_Name: Directional Light
  m_TagString: Untagged
  m_Icon: {fileID: 0}
  m_NavMeshLayer: 0
  m_StaticEditorFlags: 0
  m_IsActive: 1
--- !u!108 &1376846047
Light:
  m_ObjectHideFlags: 0
  m_CorrespondingSourceObject: {fileID: 0}
  m_PrefabInstance: {fileID: 0}
  m_PrefabAsset: {fileID: 0}
  m_GameObject: {fileID: 1376846046}
  m_Enabled: 1
  serializedVersion: 10
  m_Type: 1
  m_Shape: 0
  m_Color: {r: 1, g: 0.95686275, b: 0.8392157, a: 1}
  m_Intensity: 1
  m_Range: 10
  m_SpotAngle: 30
  m_InnerSpotAngle: 21.80208
  m_CookieSize: 10
  m_Shadows:
    m_Type: 2
    m_Resolution: -1
    m_CustomResolution: -1
    m_Strength: 1
    m_Bias: 0.05
    m_NormalBias: 0.4
    m_NearPlane: 0.2
    m_CullingMatrixOverride:
      e00: 1
      e01: 0
      e02: 0
      e03: 0
      e10: 0
      e11: 1
      e12: 0
      e13: 0
      e20: 0
      e21: 0
      e22: 1
      e23: 0
      e30: 0
      e31: 0
      e32: 0
      e33: 1
    m_UseCullingMatrixOverride: 0
  m_Cookie: {fileID: 0}
  m_DrawHalo: 0
  m_Flare: {fileID: 0}
  m_RenderMode: 0
  m_CullingMask:
    serializedVersion: 2
    m_Bits: 4294967295
  m_RenderingLayerMask: 1
  m_Lightmapping: 4
  m_LightShadowCasterMode: 0
  m_AreaSize: {x: 1, y: 1}
  m_BounceIntensity: 1
  m_ColorTemperature: 6570
  m_UseColorTemperature: 0
  m_BoundingSphereOverride: {x: 0, y: 0, z: 0, w: 0}
  m_UseBoundingSphereOverride: 0
  m_UseViewFrustumForShadowCasterCull: 1
  m_ShadowRadius: 0
  m_ShadowAngle: 0
--- !u!4 &1376846048
Transform:
  m_ObjectHideFlags: 0
  m_CorrespondingSourceObject: {fileID: 0}
  m_PrefabInstance: {fileID: 0}
  m_PrefabAsset: {fileID: 0}
  m_GameObject: {fileID: 1376846046}
  serializedVersion: 2
  m_LocalRotation: {x: 0.40821788, y: -0.23456968, z: 0.10938163, w: 0.8754261}
  m_LocalPosition: {x: 0, y: 3, z: 0}
  m_LocalScale: {x: 1, y: 1, z: 1}
  m_ConstrainProportionsScale: 0
  m_Children: []
  m_Father: {fileID: 1736172555}
  m_LocalEulerAnglesHint: {x: 50, y: -30, z: 0}
--- !u!114 &1376846049
MonoBehaviour:
  m_ObjectHideFlags: 0
  m_CorrespondingSourceObject: {fileID: 0}
  m_PrefabInstance: {fileID: 0}
  m_PrefabAsset: {fileID: 0}
  m_GameObject: {fileID: 1376846046}
  m_Enabled: 1
  m_EditorHideFlags: 0
  m_Script: {fileID: 11500000, guid: 474bcb49853aa07438625e644c072ee6, type: 3}
  m_Name: 
  m_EditorClassIdentifier: 
  m_Version: 3
  m_UsePipelineSettings: 1
  m_AdditionalLightsShadowResolutionTier: 2
  m_LightLayerMask: 1
  m_RenderingLayers: 1
  m_CustomShadowLayers: 0
  m_ShadowLayerMask: 1
  m_ShadowRenderingLayers: 1
  m_LightCookieSize: {x: 1, y: 1}
  m_LightCookieOffset: {x: 0, y: 0}
  m_SoftShadowQuality: 0
--- !u!1 &1501329718
GameObject:
  m_ObjectHideFlags: 0
  m_CorrespondingSourceObject: {fileID: 0}
  m_PrefabInstance: {fileID: 0}
  m_PrefabAsset: {fileID: 0}
  serializedVersion: 6
  m_Component:
  - component: {fileID: 1501329719}
  - component: {fileID: 1501329721}
  - component: {fileID: 1501329720}
  m_Layer: 0
  m_Name: Team 0 Score Text (1)
  m_TagString: Untagged
  m_Icon: {fileID: 0}
  m_NavMeshLayer: 0
  m_StaticEditorFlags: 0
  m_IsActive: 0
--- !u!224 &1501329719
RectTransform:
  m_ObjectHideFlags: 0
  m_CorrespondingSourceObject: {fileID: 0}
  m_PrefabInstance: {fileID: 0}
  m_PrefabAsset: {fileID: 0}
  m_GameObject: {fileID: 1501329718}
  m_LocalRotation: {x: 0.7070766, y: -0.0001382897, z: -0.00013827786, w: 0.707137}
  m_LocalPosition: {x: 0, y: 0, z: 10.36}
  m_LocalScale: {x: 1, y: 1, z: 1}
  m_ConstrainProportionsScale: 0
  m_Children: []
  m_Father: {fileID: 1217292892}
  m_LocalEulerAnglesHint: {x: 89.98, y: 360, z: -0.022}
  m_AnchorMin: {x: 0.5, y: 0.5}
  m_AnchorMax: {x: 0.5, y: 0.5}
  m_AnchoredPosition: {x: 5.1, y: 0.35}
  m_SizeDelta: {x: 5, y: 2}
  m_Pivot: {x: 0.5, y: 0.5}
--- !u!114 &1501329720
MonoBehaviour:
  m_ObjectHideFlags: 0
  m_CorrespondingSourceObject: {fileID: 0}
  m_PrefabInstance: {fileID: 0}
  m_PrefabAsset: {fileID: 0}
  m_GameObject: {fileID: 1501329718}
  m_Enabled: 1
  m_EditorHideFlags: 0
  m_Script: {fileID: 11500000, guid: 9541d86e2fd84c1d9990edf0852d74ab, type: 3}
  m_Name: 
  m_EditorClassIdentifier: 
  m_Material: {fileID: 0}
  m_Color: {r: 1, g: 1, b: 1, a: 1}
  m_RaycastTarget: 1
  m_RaycastPadding: {x: 0, y: 0, z: 0, w: 0}
  m_Maskable: 1
  m_OnCullStateChanged:
    m_PersistentCalls:
      m_Calls: []
  m_text: 25
  m_isRightToLeft: 0
  m_fontAsset: {fileID: 11400000, guid: 8f586378b4e144a9851e7b34d9b748ee, type: 2}
  m_sharedMaterial: {fileID: 2180264, guid: 8f586378b4e144a9851e7b34d9b748ee, type: 2}
  m_fontSharedMaterials: []
  m_fontMaterial: {fileID: 0}
  m_fontMaterials: []
  m_fontColor32:
    serializedVersion: 2
    rgba: 4294967295
  m_fontColor: {r: 1, g: 1, b: 1, a: 1}
  m_enableVertexGradient: 0
  m_colorMode: 3
  m_fontColorGradient:
    topLeft: {r: 1, g: 1, b: 1, a: 1}
    topRight: {r: 1, g: 1, b: 1, a: 1}
    bottomLeft: {r: 1, g: 1, b: 1, a: 1}
    bottomRight: {r: 1, g: 1, b: 1, a: 1}
  m_fontColorGradientPreset: {fileID: 0}
  m_spriteAsset: {fileID: 0}
  m_tintAllSprites: 0
  m_StyleSheet: {fileID: 0}
  m_TextStyleHashCode: -1183493901
  m_overrideHtmlColors: 0
  m_faceColor:
    serializedVersion: 2
    rgba: 4294967295
  m_fontSize: 8.5
  m_fontSizeBase: 36
  m_fontWeight: 400
  m_enableAutoSizing: 1
  m_fontSizeMin: 4.92
  m_fontSizeMax: 8.5
  m_fontStyle: 0
  m_HorizontalAlignment: 4
  m_VerticalAlignment: 512
  m_textAlignment: 65535
  m_characterSpacing: 0
  m_wordSpacing: 0
  m_lineSpacing: 0
  m_lineSpacingMax: 0
  m_paragraphSpacing: 0
  m_charWidthMaxAdj: 0
  m_enableWordWrapping: 1
  m_wordWrappingRatios: 0.4
  m_overflowMode: 0
  m_linkedTextComponent: {fileID: 0}
  parentLinkedComponent: {fileID: 0}
  m_enableKerning: 1
  m_enableExtraPadding: 0
  checkPaddingRequired: 0
  m_isRichText: 1
  m_parseCtrlCharacters: 1
  m_isOrthographic: 0
  m_isCullingEnabled: 0
  m_horizontalMapping: 0
  m_verticalMapping: 0
  m_uvLineOffset: 0
  m_geometrySortingOrder: 0
  m_IsTextObjectScaleStatic: 0
  m_VertexBufferAutoSizeReduction: 0
  m_useMaxVisibleDescender: 1
  m_pageToDisplay: 1
  m_margin: {x: 0.3266523, y: 0, z: 0, w: 0}
  m_isUsingLegacyAnimationComponent: 0
  m_isVolumetricText: 0
  _SortingLayer: 0
  _SortingLayerID: 0
  _SortingOrder: 0
  m_hasFontAssetChanged: 0
  m_renderer: {fileID: 1501329721}
  m_maskType: 0
--- !u!23 &1501329721
MeshRenderer:
  m_ObjectHideFlags: 0
  m_CorrespondingSourceObject: {fileID: 0}
  m_PrefabInstance: {fileID: 0}
  m_PrefabAsset: {fileID: 0}
  m_GameObject: {fileID: 1501329718}
  m_Enabled: 1
  m_CastShadows: 0
  m_ReceiveShadows: 0
  m_DynamicOccludee: 1
  m_StaticShadowCaster: 0
  m_MotionVectors: 1
  m_LightProbeUsage: 1
  m_ReflectionProbeUsage: 1
  m_RayTracingMode: 2
  m_RayTraceProcedural: 0
  m_RenderingLayerMask: 1
  m_RendererPriority: 0
  m_Materials:
  - {fileID: 2180264, guid: 8f586378b4e144a9851e7b34d9b748ee, type: 2}
  m_StaticBatchInfo:
    firstSubMesh: 0
    subMeshCount: 0
  m_StaticBatchRoot: {fileID: 0}
  m_ProbeAnchor: {fileID: 0}
  m_LightProbeVolumeOverride: {fileID: 0}
  m_ScaleInLightmap: 1
  m_ReceiveGI: 1
  m_PreserveUVs: 0
  m_IgnoreNormalsForChartDetection: 0
  m_ImportantGI: 0
  m_StitchLightmapSeams: 1
  m_SelectedEditorRenderState: 3
  m_MinimumChartSize: 4
  m_AutoUVMaxDistance: 0.5
  m_AutoUVMaxAngle: 89
  m_LightmapParameters: {fileID: 0}
  m_SortingLayerID: 0
  m_SortingLayer: 0
  m_SortingOrder: 0
  m_AdditionalVertexStreams: {fileID: 0}
--- !u!1001 &1561192732
PrefabInstance:
  m_ObjectHideFlags: 0
  serializedVersion: 2
  m_Modification:
    serializedVersion: 3
    m_TransformParent: {fileID: 1217292892}
    m_Modifications:
    - target: {fileID: 1626475009636402646, guid: aae6d1bd495f14a47981eafd0ca1a2ab,
        type: 3}
      propertyPath: m_LocalPosition.x
      value: -0.65
      objectReference: {fileID: 0}
    - target: {fileID: 1626475009636402646, guid: aae6d1bd495f14a47981eafd0ca1a2ab,
        type: 3}
      propertyPath: m_LocalPosition.y
      value: 0
      objectReference: {fileID: 0}
    - target: {fileID: 1626475009636402646, guid: aae6d1bd495f14a47981eafd0ca1a2ab,
        type: 3}
      propertyPath: m_LocalPosition.z
      value: 10.37
      objectReference: {fileID: 0}
    - target: {fileID: 1626475009636402646, guid: aae6d1bd495f14a47981eafd0ca1a2ab,
        type: 3}
      propertyPath: m_LocalRotation.w
      value: -0.00024206933
      objectReference: {fileID: 0}
    - target: {fileID: 1626475009636402646, guid: aae6d1bd495f14a47981eafd0ca1a2ab,
        type: 3}
      propertyPath: m_LocalRotation.x
      value: -0
      objectReference: {fileID: 0}
    - target: {fileID: 1626475009636402646, guid: aae6d1bd495f14a47981eafd0ca1a2ab,
        type: 3}
      propertyPath: m_LocalRotation.y
      value: -1
      objectReference: {fileID: 0}
    - target: {fileID: 1626475009636402646, guid: aae6d1bd495f14a47981eafd0ca1a2ab,
        type: 3}
      propertyPath: m_LocalRotation.z
      value: -0
      objectReference: {fileID: 0}
    - target: {fileID: 1626475009636402646, guid: aae6d1bd495f14a47981eafd0ca1a2ab,
        type: 3}
      propertyPath: m_LocalEulerAnglesHint.x
      value: 0
      objectReference: {fileID: 0}
    - target: {fileID: 1626475009636402646, guid: aae6d1bd495f14a47981eafd0ca1a2ab,
        type: 3}
      propertyPath: m_LocalEulerAnglesHint.y
      value: -180.028
      objectReference: {fileID: 0}
    - target: {fileID: 1626475009636402646, guid: aae6d1bd495f14a47981eafd0ca1a2ab,
        type: 3}
      propertyPath: m_LocalEulerAnglesHint.z
      value: 0
      objectReference: {fileID: 0}
    - target: {fileID: 5546231899441567787, guid: aae6d1bd495f14a47981eafd0ca1a2ab,
        type: 3}
      propertyPath: m_Name
      value: Scoreboard
      objectReference: {fileID: 0}
    - target: {fileID: 5546231899441567787, guid: aae6d1bd495f14a47981eafd0ca1a2ab,
        type: 3}
      propertyPath: m_IsActive
      value: 0
      objectReference: {fileID: 0}
    m_RemovedComponents: []
    m_RemovedGameObjects: []
    m_AddedGameObjects: []
    m_AddedComponents:
    - targetCorrespondingSourceObject: {fileID: 5546231899441567787, guid: aae6d1bd495f14a47981eafd0ca1a2ab,
        type: 3}
      insertIndex: -1
      addedObject: {fileID: 1180508635}
  m_SourcePrefab: {fileID: 100100000, guid: aae6d1bd495f14a47981eafd0ca1a2ab, type: 3}
--- !u!1 &1592027940
GameObject:
  m_ObjectHideFlags: 0
  m_CorrespondingSourceObject: {fileID: 0}
  m_PrefabInstance: {fileID: 0}
  m_PrefabAsset: {fileID: 0}
  serializedVersion: 6
  m_Component:
  - component: {fileID: 1592027941}
  m_Layer: 0
  m_Name: Cameraman
  m_TagString: Untagged
  m_Icon: {fileID: 0}
  m_NavMeshLayer: 0
  m_StaticEditorFlags: 0
  m_IsActive: 1
--- !u!4 &1592027941
Transform:
  m_ObjectHideFlags: 0
  m_CorrespondingSourceObject: {fileID: 0}
  m_PrefabInstance: {fileID: 0}
  m_PrefabAsset: {fileID: 0}
  m_GameObject: {fileID: 1592027940}
  serializedVersion: 2
  m_LocalRotation: {x: 0, y: 0, z: 0, w: 1}
  m_LocalPosition: {x: 0, y: 0, z: 0}
  m_LocalScale: {x: 1, y: 1, z: 1}
  m_ConstrainProportionsScale: 0
  m_Children:
  - {fileID: 904124052}
  m_Father: {fileID: 0}
  m_LocalEulerAnglesHint: {x: 0, y: 0, z: 0}
--- !u!1 &1610621882
GameObject:
  m_ObjectHideFlags: 0
  m_CorrespondingSourceObject: {fileID: 0}
  m_PrefabInstance: {fileID: 0}
  m_PrefabAsset: {fileID: 0}
  serializedVersion: 6
  m_Component:
  - component: {fileID: 1610621883}
  - component: {fileID: 1610621884}
  m_Layer: 0
  m_Name: Input Manager
  m_TagString: Untagged
  m_Icon: {fileID: 0}
  m_NavMeshLayer: 0
  m_StaticEditorFlags: 0
  m_IsActive: 1
--- !u!4 &1610621883
Transform:
  m_ObjectHideFlags: 0
  m_CorrespondingSourceObject: {fileID: 0}
  m_PrefabInstance: {fileID: 0}
  m_PrefabAsset: {fileID: 0}
  m_GameObject: {fileID: 1610621882}
  serializedVersion: 2
  m_LocalRotation: {x: 0, y: 0, z: 0, w: 1}
  m_LocalPosition: {x: 0, y: 0, z: 0}
  m_LocalScale: {x: 1, y: 1, z: 1}
  m_ConstrainProportionsScale: 0
  m_Children: []
  m_Father: {fileID: 1217292892}
  m_LocalEulerAnglesHint: {x: 0, y: 0, z: 0}
--- !u!114 &1610621884
MonoBehaviour:
  m_ObjectHideFlags: 0
  m_CorrespondingSourceObject: {fileID: 0}
  m_PrefabInstance: {fileID: 0}
  m_PrefabAsset: {fileID: 0}
  m_GameObject: {fileID: 1610621882}
  m_Enabled: 1
  m_EditorHideFlags: 0
  m_Script: {fileID: 11500000, guid: 621567455fd1c4ceb811cc8a00b6a1a5, type: 3}
  m_Name: 
  m_EditorClassIdentifier: 
  m_NotificationBehavior: 0
  m_MaxPlayerCount: 2
  m_AllowJoining: 1
  m_JoinBehavior: 1
  m_PlayerJoinedEvent:
    m_PersistentCalls:
      m_Calls: []
  m_PlayerLeftEvent:
    m_PersistentCalls:
      m_Calls: []
  m_JoinAction:
    m_UseReference: 0
    m_Action:
      m_Name: Join
      m_Type: 0
      m_ExpectedControlType: 
      m_Id: 64a994dc-e711-4032-9060-56008883cbe6
      m_Processors: 
      m_Interactions: 
      m_SingletonActionBindings:
      - m_Name: 
        m_Id: 4e0862e2-3f34-418f-9a19-a6196daa79d6
        m_Path: <Gamepad>/start
        m_Interactions: 
        m_Processors: 
        m_Groups: 
        m_Action: Join
        m_Flags: 0
      m_Flags: 0
    m_Reference: {fileID: 0}
  m_PlayerPrefab: {fileID: 1405592874454248917, guid: 7598ed0744874254abfb37c8dbedc0d8,
    type: 3}
  m_SplitScreen: 0
  m_MaintainAspectRatioInSplitScreen: 0
  m_FixedNumberOfSplitScreens: -1
  m_SplitScreenRect:
    serializedVersion: 2
    x: 0
    y: 0
    width: 1
    height: 1
--- !u!1 &1736172554
GameObject:
  m_ObjectHideFlags: 0
  m_CorrespondingSourceObject: {fileID: 0}
  m_PrefabInstance: {fileID: 0}
  m_PrefabAsset: {fileID: 0}
  serializedVersion: 6
  m_Component:
  - component: {fileID: 1736172555}
  m_Layer: 0
  m_Name: Scenary
  m_TagString: Untagged
  m_Icon: {fileID: 0}
  m_NavMeshLayer: 0
  m_StaticEditorFlags: 0
  m_IsActive: 1
--- !u!4 &1736172555
Transform:
  m_ObjectHideFlags: 0
  m_CorrespondingSourceObject: {fileID: 0}
  m_PrefabInstance: {fileID: 0}
  m_PrefabAsset: {fileID: 0}
  m_GameObject: {fileID: 1736172554}
  serializedVersion: 2
  m_LocalRotation: {x: 0, y: 0, z: 0, w: 1}
  m_LocalPosition: {x: 0, y: 0, z: 0}
  m_LocalScale: {x: 1, y: 1, z: 1}
  m_ConstrainProportionsScale: 0
  m_Children:
  - {fileID: 1376846048}
  m_Father: {fileID: 0}
  m_LocalEulerAnglesHint: {x: 0, y: 0, z: 0}
--- !u!1 &1898519365
GameObject:
  m_ObjectHideFlags: 0
  m_CorrespondingSourceObject: {fileID: 0}
  m_PrefabInstance: {fileID: 0}
  m_PrefabAsset: {fileID: 0}
  serializedVersion: 6
  m_Component:
  - component: {fileID: 1898519366}
  - component: {fileID: 1898519368}
  - component: {fileID: 1898519367}
  m_Layer: 0
  m_Name: Team 0 Score Text
  m_TagString: Untagged
  m_Icon: {fileID: 0}
  m_NavMeshLayer: 0
  m_StaticEditorFlags: 0
  m_IsActive: 0
--- !u!224 &1898519366
RectTransform:
  m_ObjectHideFlags: 0
  m_CorrespondingSourceObject: {fileID: 0}
  m_PrefabInstance: {fileID: 0}
  m_PrefabAsset: {fileID: 0}
  m_GameObject: {fileID: 1898519365}
  m_LocalRotation: {x: 0.7070766, y: -0.0001382897, z: -0.00013827786, w: 0.707137}
  m_LocalPosition: {x: 0, y: 0, z: 10.36}
  m_LocalScale: {x: 1, y: 1, z: 1}
  m_ConstrainProportionsScale: 0
  m_Children: []
  m_Father: {fileID: 1217292892}
  m_LocalEulerAnglesHint: {x: 89.98, y: 360, z: -0.022}
  m_AnchorMin: {x: 0.5, y: 0.5}
  m_AnchorMax: {x: 0.5, y: 0.5}
  m_AnchoredPosition: {x: -6.75, y: 0.35}
  m_SizeDelta: {x: 5, y: 2}
  m_Pivot: {x: 0.5, y: 0.5}
--- !u!114 &1898519367
MonoBehaviour:
  m_ObjectHideFlags: 0
  m_CorrespondingSourceObject: {fileID: 0}
  m_PrefabInstance: {fileID: 0}
  m_PrefabAsset: {fileID: 0}
  m_GameObject: {fileID: 1898519365}
  m_Enabled: 1
  m_EditorHideFlags: 0
  m_Script: {fileID: 11500000, guid: 9541d86e2fd84c1d9990edf0852d74ab, type: 3}
  m_Name: 
  m_EditorClassIdentifier: 
  m_Material: {fileID: 0}
  m_Color: {r: 1, g: 1, b: 1, a: 1}
  m_RaycastTarget: 1
  m_RaycastPadding: {x: 0, y: 0, z: 0, w: 0}
  m_Maskable: 1
  m_OnCullStateChanged:
    m_PersistentCalls:
      m_Calls: []
  m_text: 25
  m_isRightToLeft: 0
  m_fontAsset: {fileID: 11400000, guid: 8f586378b4e144a9851e7b34d9b748ee, type: 2}
  m_sharedMaterial: {fileID: 2180264, guid: 8f586378b4e144a9851e7b34d9b748ee, type: 2}
  m_fontSharedMaterials: []
  m_fontMaterial: {fileID: 0}
  m_fontMaterials: []
  m_fontColor32:
    serializedVersion: 2
    rgba: 4294967295
  m_fontColor: {r: 1, g: 1, b: 1, a: 1}
  m_enableVertexGradient: 0
  m_colorMode: 3
  m_fontColorGradient:
    topLeft: {r: 1, g: 1, b: 1, a: 1}
    topRight: {r: 1, g: 1, b: 1, a: 1}
    bottomLeft: {r: 1, g: 1, b: 1, a: 1}
    bottomRight: {r: 1, g: 1, b: 1, a: 1}
  m_fontColorGradientPreset: {fileID: 0}
  m_spriteAsset: {fileID: 0}
  m_tintAllSprites: 0
  m_StyleSheet: {fileID: 0}
  m_TextStyleHashCode: -1183493901
  m_overrideHtmlColors: 0
  m_faceColor:
    serializedVersion: 2
    rgba: 4294967295
  m_fontSize: 8.5
  m_fontSizeBase: 36
  m_fontWeight: 400
  m_enableAutoSizing: 1
  m_fontSizeMin: 4.92
  m_fontSizeMax: 8.5
  m_fontStyle: 0
  m_HorizontalAlignment: 1
  m_VerticalAlignment: 512
  m_textAlignment: 65535
  m_characterSpacing: 0
  m_wordSpacing: 0
  m_lineSpacing: 0
  m_lineSpacingMax: 0
  m_paragraphSpacing: 0
  m_charWidthMaxAdj: 0
  m_enableWordWrapping: 1
  m_wordWrappingRatios: 0.4
  m_overflowMode: 0
  m_linkedTextComponent: {fileID: 0}
  parentLinkedComponent: {fileID: 0}
  m_enableKerning: 1
  m_enableExtraPadding: 0
  checkPaddingRequired: 0
  m_isRichText: 1
  m_parseCtrlCharacters: 1
  m_isOrthographic: 0
  m_isCullingEnabled: 0
  m_horizontalMapping: 0
  m_verticalMapping: 0
  m_uvLineOffset: 0
  m_geometrySortingOrder: 0
  m_IsTextObjectScaleStatic: 0
  m_VertexBufferAutoSizeReduction: 0
  m_useMaxVisibleDescender: 1
  m_pageToDisplay: 1
  m_margin: {x: 0.3266523, y: 0, z: 0, w: 0}
  m_isUsingLegacyAnimationComponent: 0
  m_isVolumetricText: 0
  _SortingLayer: 0
  _SortingLayerID: 0
  _SortingOrder: 0
  m_hasFontAssetChanged: 0
  m_renderer: {fileID: 1898519368}
  m_maskType: 0
--- !u!23 &1898519368
MeshRenderer:
  m_ObjectHideFlags: 0
  m_CorrespondingSourceObject: {fileID: 0}
  m_PrefabInstance: {fileID: 0}
  m_PrefabAsset: {fileID: 0}
  m_GameObject: {fileID: 1898519365}
  m_Enabled: 1
  m_CastShadows: 0
  m_ReceiveShadows: 0
  m_DynamicOccludee: 1
  m_StaticShadowCaster: 0
  m_MotionVectors: 1
  m_LightProbeUsage: 1
  m_ReflectionProbeUsage: 1
  m_RayTracingMode: 2
  m_RayTraceProcedural: 0
  m_RenderingLayerMask: 1
  m_RendererPriority: 0
  m_Materials:
  - {fileID: 2180264, guid: 8f586378b4e144a9851e7b34d9b748ee, type: 2}
  m_StaticBatchInfo:
    firstSubMesh: 0
    subMeshCount: 0
  m_StaticBatchRoot: {fileID: 0}
  m_ProbeAnchor: {fileID: 0}
  m_LightProbeVolumeOverride: {fileID: 0}
  m_ScaleInLightmap: 1
  m_ReceiveGI: 1
  m_PreserveUVs: 0
  m_IgnoreNormalsForChartDetection: 0
  m_ImportantGI: 0
  m_StitchLightmapSeams: 1
  m_SelectedEditorRenderState: 3
  m_MinimumChartSize: 4
  m_AutoUVMaxDistance: 0.5
  m_AutoUVMaxAngle: 89
  m_LightmapParameters: {fileID: 0}
  m_SortingLayerID: 0
  m_SortingLayer: 0
  m_SortingOrder: 0
  m_AdditionalVertexStreams: {fileID: 0}
--- !u!1001 &3789788491486610371
PrefabInstance:
  m_ObjectHideFlags: 0
  serializedVersion: 2
  m_Modification:
    serializedVersion: 3
    m_TransformParent: {fileID: 0}
    m_Modifications:
    - target: {fileID: 1439297961917481513, guid: 6057cdfe048901b4e968f9f834e32508,
        type: 3}
      propertyPath: mapSize
      value: 9
      objectReference: {fileID: 0}
    - target: {fileID: 1439297961917481513, guid: 6057cdfe048901b4e968f9f834e32508,
        type: 3}
      propertyPath: lacunarity
      value: 0.33
      objectReference: {fileID: 0}
    - target: {fileID: 1439297961917481513, guid: 6057cdfe048901b4e968f9f834e32508,
        type: 3}
      propertyPath: altarGameObject
      value: 
      objectReference: {fileID: 8147226567461479810, guid: e740a4eb44bd62340b204e147136800a,
        type: 3}
    - target: {fileID: 1439297961917481513, guid: 6057cdfe048901b4e968f9f834e32508,
        type: 3}
      propertyPath: mustHaveTiles.Array.size
      value: 4
      objectReference: {fileID: 0}
    - target: {fileID: 1439297961917481513, guid: 6057cdfe048901b4e968f9f834e32508,
        type: 3}
      propertyPath: neutralAltars.Array.size
      value: 6
      objectReference: {fileID: 0}
    - target: {fileID: 1439297961917481513, guid: 6057cdfe048901b4e968f9f834e32508,
        type: 3}
      propertyPath: team_0_Altars.Array.size
      value: 1
      objectReference: {fileID: 0}
    - target: {fileID: 1439297961917481513, guid: 6057cdfe048901b4e968f9f834e32508,
        type: 3}
      propertyPath: team_1_Altars.Array.size
      value: 1
      objectReference: {fileID: 0}
    - target: {fileID: 1439297961917481513, guid: 6057cdfe048901b4e968f9f834e32508,
        type: 3}
      propertyPath: tileGameObjects.Array.size
      value: 1
      objectReference: {fileID: 0}
    - target: {fileID: 1439297961917481513, guid: 6057cdfe048901b4e968f9f834e32508,
        type: 3}
      propertyPath: mustHaveTiles.Array.data[0].x
      value: -3
      objectReference: {fileID: 0}
    - target: {fileID: 1439297961917481513, guid: 6057cdfe048901b4e968f9f834e32508,
        type: 3}
      propertyPath: mustHaveTiles.Array.data[0].y
      value: 2
      objectReference: {fileID: 0}
    - target: {fileID: 1439297961917481513, guid: 6057cdfe048901b4e968f9f834e32508,
        type: 3}
      propertyPath: mustHaveTiles.Array.data[0].z
      value: 0
      objectReference: {fileID: 0}
    - target: {fileID: 1439297961917481513, guid: 6057cdfe048901b4e968f9f834e32508,
        type: 3}
      propertyPath: mustHaveTiles.Array.data[1].x
      value: -3
      objectReference: {fileID: 0}
    - target: {fileID: 1439297961917481513, guid: 6057cdfe048901b4e968f9f834e32508,
        type: 3}
      propertyPath: mustHaveTiles.Array.data[1].y
      value: -3
      objectReference: {fileID: 0}
    - target: {fileID: 1439297961917481513, guid: 6057cdfe048901b4e968f9f834e32508,
        type: 3}
      propertyPath: mustHaveTiles.Array.data[2].x
      value: 2
      objectReference: {fileID: 0}
    - target: {fileID: 1439297961917481513, guid: 6057cdfe048901b4e968f9f834e32508,
        type: 3}
      propertyPath: mustHaveTiles.Array.data[2].y
      value: 2
      objectReference: {fileID: 0}
    - target: {fileID: 1439297961917481513, guid: 6057cdfe048901b4e968f9f834e32508,
        type: 3}
      propertyPath: mustHaveTiles.Array.data[3].x
      value: 2
      objectReference: {fileID: 0}
    - target: {fileID: 1439297961917481513, guid: 6057cdfe048901b4e968f9f834e32508,
        type: 3}
      propertyPath: mustHaveTiles.Array.data[3].y
      value: -3
      objectReference: {fileID: 0}
    - target: {fileID: 1439297961917481513, guid: 6057cdfe048901b4e968f9f834e32508,
        type: 3}
      propertyPath: neutralAltars.Array.data[1].x
      value: -3
      objectReference: {fileID: 0}
    - target: {fileID: 1439297961917481513, guid: 6057cdfe048901b4e968f9f834e32508,
        type: 3}
      propertyPath: neutralAltars.Array.data[1].y
      value: -2
      objectReference: {fileID: 0}
    - target: {fileID: 1439297961917481513, guid: 6057cdfe048901b4e968f9f834e32508,
        type: 3}
      propertyPath: neutralAltars.Array.data[2].x
      value: 2
      objectReference: {fileID: 0}
    - target: {fileID: 1439297961917481513, guid: 6057cdfe048901b4e968f9f834e32508,
        type: 3}
      propertyPath: neutralAltars.Array.data[2].y
      value: 2
      objectReference: {fileID: 0}
    - target: {fileID: 1439297961917481513, guid: 6057cdfe048901b4e968f9f834e32508,
        type: 3}
      propertyPath: neutralAltars.Array.data[3].x
      value: -1
      objectReference: {fileID: 0}
    - target: {fileID: 1439297961917481513, guid: 6057cdfe048901b4e968f9f834e32508,
        type: 3}
      propertyPath: neutralAltars.Array.data[3].y
      value: -2
      objectReference: {fileID: 0}
    - target: {fileID: 1439297961917481513, guid: 6057cdfe048901b4e968f9f834e32508,
        type: 3}
      propertyPath: neutralAltars.Array.data[4].x
      value: -2
      objectReference: {fileID: 0}
    - target: {fileID: 1439297961917481513, guid: 6057cdfe048901b4e968f9f834e32508,
        type: 3}
      propertyPath: neutralAltars.Array.data[4].y
      value: 3
      objectReference: {fileID: 0}
    - target: {fileID: 1439297961917481513, guid: 6057cdfe048901b4e968f9f834e32508,
        type: 3}
      propertyPath: neutralAltars.Array.data[5].x
      value: 2
      objectReference: {fileID: 0}
    - target: {fileID: 1439297961917481513, guid: 6057cdfe048901b4e968f9f834e32508,
        type: 3}
      propertyPath: neutralAltars.Array.data[5].y
      value: -1
      objectReference: {fileID: 0}
    - target: {fileID: 1439297961917481513, guid: 6057cdfe048901b4e968f9f834e32508,
        type: 3}
      propertyPath: neutralAltars.Array.data[6].x
      value: 2
      objectReference: {fileID: 0}
    - target: {fileID: 1439297961917481513, guid: 6057cdfe048901b4e968f9f834e32508,
        type: 3}
      propertyPath: neutralAltars.Array.data[6].y
      value: -1
      objectReference: {fileID: 0}
    - target: {fileID: 1439297961917481513, guid: 6057cdfe048901b4e968f9f834e32508,
        type: 3}
      propertyPath: neutralAltars.Array.data[7].x
      value: 2
      objectReference: {fileID: 0}
    - target: {fileID: 1439297961917481513, guid: 6057cdfe048901b4e968f9f834e32508,
        type: 3}
      propertyPath: neutralAltars.Array.data[7].y
      value: -1
      objectReference: {fileID: 0}
    - target: {fileID: 1439297961917481513, guid: 6057cdfe048901b4e968f9f834e32508,
        type: 3}
      propertyPath: team_0_Altars.Array.data[0].x
      value: -4
      objectReference: {fileID: 0}
    - target: {fileID: 1439297961917481513, guid: 6057cdfe048901b4e968f9f834e32508,
        type: 3}
      propertyPath: team_0_Altars.Array.data[0].y
      value: 3
      objectReference: {fileID: 0}
    - target: {fileID: 1439297961917481513, guid: 6057cdfe048901b4e968f9f834e32508,
        type: 3}
      propertyPath: team_1_Altars.Array.data[0].x
      value: 3
      objectReference: {fileID: 0}
    - target: {fileID: 1439297961917481513, guid: 6057cdfe048901b4e968f9f834e32508,
        type: 3}
      propertyPath: team_1_Altars.Array.data[0].y
      value: -4
      objectReference: {fileID: 0}
    - target: {fileID: 1439297961917481513, guid: 6057cdfe048901b4e968f9f834e32508,
        type: 3}
      propertyPath: tileGameObjects.Array.data[0]
      value: 
      objectReference: {fileID: 1431264555457392439, guid: fc87695d893f73b4f8f296b703b4e3f7,
        type: 3}
    - target: {fileID: 1439297961917481513, guid: 6057cdfe048901b4e968f9f834e32508,
        type: 3}
      propertyPath: tileGameObjects.Array.data[1]
      value: 
      objectReference: {fileID: 1431264555457392439, guid: b3cc8fbc3c81f7641bff6f17c6494c5b,
        type: 3}
    - target: {fileID: 1439297961917481513, guid: 6057cdfe048901b4e968f9f834e32508,
        type: 3}
      propertyPath: tileGameObjects.Array.data[2]
      value: 
      objectReference: {fileID: 1431264555457392439, guid: 515666f2fa5e1c140815e68e9e7acf29,
        type: 3}
    - target: {fileID: 2173998451499767876, guid: 6057cdfe048901b4e968f9f834e32508,
        type: 3}
      propertyPath: m_VoxelSize
      value: 0.07
      objectReference: {fileID: 0}
    - target: {fileID: 2173998451499767876, guid: 6057cdfe048901b4e968f9f834e32508,
        type: 3}
      propertyPath: m_UseGeometry
      value: 1
      objectReference: {fileID: 0}
    - target: {fileID: 2173998451499767876, guid: 6057cdfe048901b4e968f9f834e32508,
        type: 3}
      propertyPath: m_OverrideVoxelSize
      value: 1
      objectReference: {fileID: 0}
    - target: {fileID: 7502658861158263008, guid: 6057cdfe048901b4e968f9f834e32508,
        type: 3}
      propertyPath: m_LocalPosition.x
      value: 0
      objectReference: {fileID: 0}
    - target: {fileID: 7502658861158263008, guid: 6057cdfe048901b4e968f9f834e32508,
        type: 3}
      propertyPath: m_LocalPosition.y
      value: 0
      objectReference: {fileID: 0}
    - target: {fileID: 7502658861158263008, guid: 6057cdfe048901b4e968f9f834e32508,
        type: 3}
      propertyPath: m_LocalPosition.z
      value: 0
      objectReference: {fileID: 0}
    - target: {fileID: 7502658861158263008, guid: 6057cdfe048901b4e968f9f834e32508,
        type: 3}
      propertyPath: m_LocalRotation.w
      value: 1
      objectReference: {fileID: 0}
    - target: {fileID: 7502658861158263008, guid: 6057cdfe048901b4e968f9f834e32508,
        type: 3}
      propertyPath: m_LocalRotation.x
      value: -0
      objectReference: {fileID: 0}
    - target: {fileID: 7502658861158263008, guid: 6057cdfe048901b4e968f9f834e32508,
        type: 3}
      propertyPath: m_LocalRotation.y
      value: -0
      objectReference: {fileID: 0}
    - target: {fileID: 7502658861158263008, guid: 6057cdfe048901b4e968f9f834e32508,
        type: 3}
      propertyPath: m_LocalRotation.z
      value: -0
      objectReference: {fileID: 0}
    - target: {fileID: 7502658861158263008, guid: 6057cdfe048901b4e968f9f834e32508,
        type: 3}
      propertyPath: m_LocalEulerAnglesHint.x
      value: 0
      objectReference: {fileID: 0}
    - target: {fileID: 7502658861158263008, guid: 6057cdfe048901b4e968f9f834e32508,
        type: 3}
      propertyPath: m_LocalEulerAnglesHint.y
      value: 0
      objectReference: {fileID: 0}
    - target: {fileID: 7502658861158263008, guid: 6057cdfe048901b4e968f9f834e32508,
        type: 3}
      propertyPath: m_LocalEulerAnglesHint.z
      value: 0
      objectReference: {fileID: 0}
    - target: {fileID: 8057500001585488656, guid: 6057cdfe048901b4e968f9f834e32508,
        type: 3}
      propertyPath: m_Name
      value: Hex Map
      objectReference: {fileID: 0}
    m_RemovedComponents: []
    m_RemovedGameObjects: []
    m_AddedGameObjects: []
    m_AddedComponents: []
  m_SourcePrefab: {fileID: 100100000, guid: 6057cdfe048901b4e968f9f834e32508, type: 3}
--- !u!1001 &7681854091525153075
PrefabInstance:
  m_ObjectHideFlags: 0
  serializedVersion: 2
  m_Modification:
    serializedVersion: 3
    m_TransformParent: {fileID: 1217292892}
    m_Modifications:
    - target: {fileID: 1544679075126068350, guid: 287c67d3694275b42b273bbc39d002bb,
        type: 3}
      propertyPath: m_Name
      value: GM
      objectReference: {fileID: 0}
    - target: {fileID: 7219380258434396500, guid: 287c67d3694275b42b273bbc39d002bb,
        type: 3}
      propertyPath: DebugMode
      value: 0
      objectReference: {fileID: 0}
    - target: {fileID: 7219380258434396500, guid: 287c67d3694275b42b273bbc39d002bb,
        type: 3}
      propertyPath: altarPrefab
      value: 
      objectReference: {fileID: 8147226567461479810, guid: e740a4eb44bd62340b204e147136800a,
        type: 3}
    - target: {fileID: 7219380258434396500, guid: 287c67d3694275b42b273bbc39d002bb,
        type: 3}
      propertyPath: slimePrefab
      value: 
      objectReference: {fileID: 8147226567461479810, guid: 024c2d19e12cc8c4caf9342cfe46fff0,
        type: 3}
    - target: {fileID: 9050009635727066153, guid: 287c67d3694275b42b273bbc39d002bb,
        type: 3}
      propertyPath: m_LocalPosition.x
      value: 0
      objectReference: {fileID: 0}
    - target: {fileID: 9050009635727066153, guid: 287c67d3694275b42b273bbc39d002bb,
        type: 3}
      propertyPath: m_LocalPosition.y
      value: 10
      objectReference: {fileID: 0}
    - target: {fileID: 9050009635727066153, guid: 287c67d3694275b42b273bbc39d002bb,
        type: 3}
      propertyPath: m_LocalPosition.z
      value: 0
      objectReference: {fileID: 0}
    - target: {fileID: 9050009635727066153, guid: 287c67d3694275b42b273bbc39d002bb,
        type: 3}
      propertyPath: m_LocalRotation.w
      value: 1
      objectReference: {fileID: 0}
    - target: {fileID: 9050009635727066153, guid: 287c67d3694275b42b273bbc39d002bb,
        type: 3}
      propertyPath: m_LocalRotation.x
      value: -0
      objectReference: {fileID: 0}
    - target: {fileID: 9050009635727066153, guid: 287c67d3694275b42b273bbc39d002bb,
        type: 3}
      propertyPath: m_LocalRotation.y
      value: -0
      objectReference: {fileID: 0}
    - target: {fileID: 9050009635727066153, guid: 287c67d3694275b42b273bbc39d002bb,
        type: 3}
      propertyPath: m_LocalRotation.z
      value: -0
      objectReference: {fileID: 0}
    - target: {fileID: 9050009635727066153, guid: 287c67d3694275b42b273bbc39d002bb,
        type: 3}
      propertyPath: m_LocalEulerAnglesHint.x
      value: 0
      objectReference: {fileID: 0}
    - target: {fileID: 9050009635727066153, guid: 287c67d3694275b42b273bbc39d002bb,
        type: 3}
      propertyPath: m_LocalEulerAnglesHint.y
      value: 0
      objectReference: {fileID: 0}
    - target: {fileID: 9050009635727066153, guid: 287c67d3694275b42b273bbc39d002bb,
        type: 3}
      propertyPath: m_LocalEulerAnglesHint.z
      value: 0
      objectReference: {fileID: 0}
    m_RemovedComponents: []
    m_RemovedGameObjects: []
    m_AddedGameObjects: []
    m_AddedComponents: []
  m_SourcePrefab: {fileID: 100100000, guid: 287c67d3694275b42b273bbc39d002bb, type: 3}
--- !u!1660057539 &9223372036854775807
SceneRoots:
  m_ObjectHideFlags: 0
  m_Roots:
  - {fileID: 1217292892}
  - {fileID: 3789788491486610371}
  - {fileID: 1736172555}
  - {fileID: 1592027941}
